{
  "recipes": [
    {
      "title": "Ham and Cheese Toastie",
      "ingredients": [
        "Ham",
        "Cheese",
        "Bread",
        "Butter"
      ]
    },
    {
      "title": "Fry-up",
      "ingredients": [
        "Bacon",
        "Eggs",
        "Baked Beans",
        "Mushrooms",
        "Sausage",
        "Bread"
      ]
    },
    {
      "title": "Salad",
      "ingredients": [
        "Lettuce",
        "Tomato",
        "Cucumber",
        "Beetroot",
        "Salad Dressing"
      ]
    },
    {
      "title": "Hotdog",
      "ingredients": [
        "Hotdog Bun",
        "Sausage",
        "Ketchup",
        "Mustard"
      ]
    }
  ]
}